Chapter 4 Data Manipulation | Merely Useful: An introduction to using R
…
Identifying which verbs, and in which order to apply them, to answer a question of interest. This skill will translate across all technologies, but it takes a little longer to master.

4.2.1 Exercise: Point and click data manipulation

Using the RStudio Viewer answer the following questions:

How many dog licenses belong to dogs named “Queen” that live in “Queens?”

4.3 Exploring data in the console

Let’s take a look at the data in the console:

dog_licenses

## # A tibble: 118,542 x 15
##    row_number animal_name animal_gender animal_birth_mon… breed_name     borough
##         <dbl> <chr>       <chr>         <date>            <chr>          <chr>  
##  1        533 BONITA      F             2013-05-01        Unknown        Queens 
##  2        548 ROCKY       M             2014-05-01        Labrador Retr… Queens 
##  3        622 BULLY       M             2010-07-01        American Pit … Queens 
##  4        633 COCO        M             2005-02-01        Labrador Retr… Queens 
##  5        655 SKI         F             2012-09-01        American Pit … Queens 
##  6        872 CHASE       M             2013-11-01        Shih Tzu       Queens 
##  7        874 CHEWY       M             2014-09-01        Shih Tzu       Queens 
##  8        875 CHASE       M             2008-08-01        Labrador Retr… Queens 
##  9        893 MILEY       F             2008-07-01        Boxer          Queens 
## 10        919 KENZI       F             2010-05-01        Schnauzer, Mi… Queens 
## # … with 118,532 more rows, and 9 more variables: zip_code <dbl>,
## #   community_district <dbl>, census_tract_2010 <dbl>,
## #   neighborhood_tabulation_area <chr>, city_council_district <dbl>,
## #   congressional_district <dbl>, state_senatorial_district <dbl>,
## #   license_issued_date <date>, license_expired_date <date>

Notice that in contrast to the Viewer you only see the first 10 rows of the dataset, and just the first few columns. The number of columns you see depends on the width of your console, so you may see more or fewer than displayed here. You should also note some of the contents of the columns have been abbreviated. The … at the end of some values in breed_name indicates these values have been truncated for display purposes.

You’ll be using the dplyr package for data manipulation. Since it is part of the tidyverse, you’ll need to load the tidyverse package to begin:

library(tidyverse)

4.3.1 Re-arranging rows

You can reorder rows of data with the dplyr function arrange(). The arrange function takes a tibble as its first argument and column names as the remaining arguments. The result will have the rows ordered in increasing value of the specified column. For example, to find the licenses belonging to the oldest dogs we arrange dog_licenses using the animal_birth_month column:

arrange(dog_licenses, animal_birth_month)

## # A tibble: 118,542 x 15
##    row_number animal_name animal_gender animal_birth_mon… breed_name     borough
##         <dbl> <chr>       <chr>         <date>            <chr>          <chr>  
##  1      15568 JACK        M             1999-01-01        Pug            Queens 
##  2      23695 KATTY       F             1999-01-01        Chihuahua      Queens 
##  3     101309 TOMMY       M             1999-01-01        Unknown        Queens 
##  4       1598 SARAH       F             1999-01-01        West High Whi… Queens 
##  5       8628 DOMINO      M             1999-01-01        Labrador Retr… Queens 
##  6      15733 BRINKS      M             1999-01-01        Yorkshire Ter… Queens 
##  7      30419 LUCKY       M             1999-01-01        Unknown        Queens 
##  8      31348 MAGGIE      F             1999-01-01        German Shephe… Queens 
##  9      34685 COOKIE      M             1999-01-01        Pomeranian     Queens 
## 10      37194 DARCY       F             1999-01-01        Cocker Spaniel Queens 
## # … with 118,532 more rows, and 9 more variables: zip_code <dbl>,
## #   community_district <dbl>, census_tract_2010 <dbl>,
## #   neighborhood_tabulation_area <chr>, city_council_district <dbl>,
## #   congressional_district <dbl>, state_senatorial_district <dbl>,
## #   license_issued_date <date>, license_expired_date <date>

You’ll see Jack the Pug that lives in Queens, just like you did in the Viewer.

To arrange the rows by decreasing value, you need to wrap the column name in desc() (short for descending order). For instance to find the youngest dogs:

arrange(dog_licenses, desc(animal_birth_month))

## # A tibble: 118,542 x 15
##    row_number animal_name  animal_gender animal_birth_mo… breed_name    borough 
##         <dbl> <chr>        <chr>         <date>           <chr>         <chr>   
##  1     120352 MARLEY       M             2016-12-01       Cocker Spani… Manhatt…
##  2     121981 MR.          M             2016-12-01       Chihuahua Cr… Brooklyn
##  3     120501 RORY         M             2016-12-01       Unknown       Brooklyn
##  4     122028 TAQUITO      M             2016-12-01       Papillon      Staten …
##  5     115820 REX          M             2016-11-01       Maltese       Queens  
##  6     121727 CHANDERBALLI M             2016-11-01       Havanese      Queens  
##  7     115777 ANGEL        F             2016-11-01       Poodle, Mini… Queens  
##  8     118175 MASON        M             2016-11-01       American Sta… Queens  
##  9     121601 TEDDY        M             2016-11-01       Havanese      Brooklyn
## 10     120995 LOLA         F             2016-11-01       Morkie        Staten …
## # … with 118,532 more rows, and 9 more variables: zip_code <dbl>,
## #   community_district <dbl>, census_tract_2010 <dbl>,
## #   neighborhood_tabulation_area <chr>, city_council_district <dbl>,
## #   congressional_district <dbl>, state_senatorial_district <dbl>,
## #   license_issued_date <date>, license_expired_date <date>

As another example, to find the earliest issue date we can order by increasing license_issued_date:

arrange(dog_licenses, license_issued_date)

## # A tibble: 118,542 x 15
##    row_number animal_name animal_gender animal_birth_mon… breed_name     borough
##         <dbl> <chr>       <chr>         <date>            <chr>          <chr>  
##  1          1 QUEEN       F             2013-04-01        Akita Crossbr… Manhat…
##  2          2 CHEWBACCA   F             2012-06-01        Labrador Retr… Manhat…
##  3          3 IAN         M             2006-01-01        Unknown        Manhat…
##  4          7 LOLA        F             2009-06-01        Maltese        Manhat…
##  5          4 PAIGE       F             2014-07-01        American Pit … Manhat…
##  6          5 BUDDY       M             2008-04-01        Unknown        Manhat…
##  7          8 YOGI        M             2010-09-01        Boxer          Bronx  
##  8         10 MUNECA      F             2013-05-01        Beagle         Brookl…
##  9         27 BESS        F             2010-09-01        Beagle         Brookl…
## 10         26 BIGS        M             2004-12-01        American Pit … Brookl…
## # … with 118,532 more rows, and 9 more variables: zip_code <dbl>,
## #   community_district <dbl>, census_tract_2010 <dbl>,
## #   neighborhood_tabulation_area <chr>, city_council_district <dbl>,
## #   congressional_district <dbl>, state_senatorial_district <dbl>,
## #   license_issued_date <date>, license_expired_date <date>
…
Two verbs are used to subset data:

select() to select columns

filter() to select rows

You’ll learn about these two functions in this section, along with learning about a way to chain together multiple operations on a dataset.

4.4.1 Selecting columns

The select() function in dplyr is used to extract some subset of columns (but keep all the rows) from a tibble. Just like arrange(), it takes a tibble as its first argument and column names as the remaining arguments. For example, to keep only the animal_name column:

select(dog_licenses, animal_name)

## # A tibble: 118,542 x 1
##    animal_name
##    <chr>      
##  1 BONITA     
##  2 ROCKY      
##  3 BULLY      
##  4 COCO       
##  5 SKI        
##  6 CHASE      
##  7 CHEWY      
##  8 CHASE      
##  9 MILEY      
## 10 KENZI      
## # … with 118,532 more rows

You can provide additional column names as arguments to keep additional specified columns, for example to keep animal_name and breed_name:

select(dog_licenses, animal_name, breed_name)

## # A tibble: 118,542 x 2
##    animal_name breed_name                        
##    <chr>       <chr>                             
##  1 BONITA      Unknown                           
##  2 ROCKY       Labrador Retriever Crossbreed     
##  3 BULLY       American Pit Bull Terrier/Pit Bull
##  4 COCO        Labrador Retriever                
##  5 SKI         American Pit Bull Terrier/Pit Bull
##  6 CHASE       Shih Tzu                          
##  7 CHEWY       Shih Tzu                          
##  8 CHASE       Labrador Retriever                
##  9 MILEY       Boxer                             
## 10 KENZI       Schnauzer, Miniature              
## # … with 118,532 more rows

To return to finding the earliest issue date, you need to first arrange by increasing license_issued_date and then select the license_issued_date column. One approach is to store the result of the arrange step,

dog_by_date <- arrange(dog_licenses, license_issued_date)

Then apply the select step to this object:

select(dog_by_date, license_issued_date)

## # A tibble: 118,542 x 1
##    license_issued_date
##    <date>             
##  1 2014-09-12         
##  2 2014-09-12         
##  3 2014-09-12         
##  4 2014-09-12         
##  5 2014-09-12         
##  6 2014-09-12         
##  7 2014-09-12         
##  8 2014-09-13         
##  9 2014-09-13         
## 10 2014-09-13         
## # … with 118,532 more rows

There are lots of shortcuts you can use with select() to avoid having to type out all the variables you want to keep. For example, you can ask for all the columns that start with a certain string:

select(dog_licenses, starts_with("Animal"))

## # A tibble: 118,542 x 3
##    animal_name animal_gender animal_birth_month
##    <chr>       <chr>         <date>            
##  1 BONITA      F             2013-05-01        
##  2 ROCKY       M             2014-05-01        
##  3 BULLY       M             2010-07-01        
##  4 COCO        M             2005-02-01        
##  5 SKI         F             2012-09-01        
##  6 CHASE       M             2013-11-01        
##  7 CHEWY       M             2014-09-01        
##  8 CHASE       M             2008-08-01        
##  9 MILEY       F             2008-07-01        
## 10 KENZI       F             2010-05-01        
## # … with 118,532 more rows
…
Use the pipe to re-write this snippet of code to avoid the intermediate variable:

name_and_breed <- select(dog_licenses, animal_name, breed_name)
arrange(name_and_breed, breed_name)

4.4.6 Filtering to keep a subset of rows

The function to filter rows of a tibble is filter(). Like arrange() and select(), its first argument is a tibble. The remaining arguments describe which rows to keep. The rows to keep are specified with a logical expression - something that is either TRUE or FALSE. The rows where this expression is TRUE will be returned.

One of the simplest kinds of logical expression is a test for equality with the == operator. For example, to keep the rows where animal_name is BRUNO you could do:

dog_licenses %>% filter(animal_name == "BRUNO")

## # A tibble: 272 x 15
##    row_number animal_name animal_gender animal_birth_mon… breed_name     borough
##         <dbl> <chr>       <chr>         <date>            <chr>          <chr>  
##  1      12001 BRUNO       M             2010-05-01        American Pit … Queens 
##  2      27228 BRUNO       M             2013-07-01        Jack Russell … Queens 
##  3      68192 BRUNO       M             2002-01-01        Shih Tzu       Queens 
##  4      70175 BRUNO       M             2015-12-01        Chihuahua Cro… Queens 
##  5     120562 BRUNO       M             2016-05-01        Labrador Retr… Queens 
##  6       3915 BRUNO       M             2014-03-01        Doberman Pins… Queens 
##  7       9614 BRUNO       M             2014-12-01        Boxer          Queens 
##  8      15606 BRUNO       M             2015-02-01        French Bulldog Queens 
##  9      32742 BRUNO       M             2014-03-01        Maltipoo       Queens 
## 10      34299 BRUNO       M             2003-01-01        Unknown        Queens 
## # … with 262 more rows, and 9 more variables: zip_code <dbl>,
## #   community_district <dbl>, census_tract_2010 <dbl>,
## #   neighborhood_tabulation_area <chr>, city_council_district <dbl>,
## #   congressional_district <dbl>, state_senatorial_district <dbl>,
## #   license_issued_date <date>, license_expired_date <date>
…
## # A tibble: 0 x 15
## # … with 15 variables: row_number <dbl>, animal_name <chr>,
## #   animal_gender <chr>, animal_birth_month <date>, breed_name <chr>,
## #   borough <chr>, zip_code <dbl>, community_district <dbl>,
## #   census_tract_2010 <dbl>, neighborhood_tabulation_area <chr>,
## #   city_council_district <dbl>, congressional_district <dbl>,
## #   state_senatorial_district <dbl>, license_issued_date <date>,
## #   license_expired_date <date>

The result has zero rows, which would suggest there are no such licenses, but in fact this is the answer to a different question. Can you see what is wrong with the code? By surrounding animal_gender in quotes, R has interpreted the comparison as: is the string "animal_gender" equal to the string "M"?. The answer is FALSE, and no rows are returned. I actually wanted to compare the animal_gender column to the string "M", so animal_gender should have no quotes around it:

dog_licenses %>%
  filter(animal_gender == "M")

## # A tibble: 64,770 x 15
##    row_number animal_name animal_gender animal_birth_mon… breed_name     borough
##         <dbl> <chr>       <chr>         <date>            <chr>          <chr>  
##  1        548 ROCKY       M             2014-05-01        Labrador Retr… Queens 
##  2        622 BULLY       M             2010-07-01        American Pit … Queens 
##  3        633 COCO        M             2005-02-01        Labrador Retr… Queens 
##  4        872 CHASE       M             2013-11-01        Shih Tzu       Queens 
##  5        874 CHEWY       M             2014-09-01        Shih Tzu       Queens 
##  6        875 CHASE       M             2008-08-01        Labrador Retr… Queens 
##  7        976 APOLLO      M             2014-10-01        American Pit … Queens 
##  8       1297 JERRY       M             2009-06-01        Labrador Retr… Queens 
##  9       2133 SIMON       M             2010-12-01        Havanese       Queens 
## 10       2289 BUDDY       M             2012-06-01        Labrador Retr… Queens 
## # … with 64,760 more rows, and 9 more variables: zip_code <dbl>,
## #   community_district <dbl>, census_tract_2010 <dbl>,
## #   neighborhood_tabulation_area <chr>, city_council_district <dbl>,
## #   congressional_district <dbl>, state_senatorial_district <dbl>,
## #   license_issued_date <date>, license_expired_date <date>
…
Use filter() with this variable to find:

The dog licenses that were issued before 2016

The dog licenses that expire before 2016

4.4.9 More complicated expressions

Logical expressions can be combined with logical operators to construct more complicated expressions. For example, the AND operator, &, returns TRUE only if the expressions on both sides of it are TRUE. For example, you’ve seen, you can find the licenses to dogs called "BRUNO":

dog_licenses %>%
  filter(animal_name == "BRUNO")

## # A tibble: 272 x 15
##    row_number animal_name animal_gender animal_birth_mon… breed_name     borough
##         <dbl> <chr>       <chr>         <date>            <chr>          <chr>  
##  1      12001 BRUNO       M             2010-05-01        American Pit … Queens 
##  2      27228 BRUNO       M             2013-07-01        Jack Russell … Queens 
##  3      68192 BRUNO       M             2002-01-01        Shih Tzu       Queens 
##  4      70175 BRUNO       M             2015-12-01        Chihuahua Cro… Queens 
##  5     120562 BRUNO       M             2016-05-01        Labrador Retr… Queens 
##  6       3915 BRUNO       M             2014-03-01        Doberman Pins… Queens 
##  7       9614 BRUNO       M             2014-12-01        Boxer          Queens 
##  8      15606 BRUNO       M             2015-02-01        French Bulldog Queens 
##  9      32742 BRUNO       M             2014-03-01        Maltipoo       Queens 
## 10      34299 BRUNO       M             2003-01-01        Unknown        Queens 
## # … with 262 more rows, and 9 more variables: zip_code <dbl>,
## #   community_district <dbl>, census_tract_2010 <dbl>,
## #   neighborhood_tabulation_area <chr>, city_council_district <dbl>,
## #   congressional_district <dbl>, state_senatorial_district <dbl>,
## #   license_issued_date <date>, license_expired_date <date>

And you could find the dog licenses issued to dogs that live in Brooklyn:

dog_licenses %>%
  filter(borough == "Brooklyn")

## # A tibble: 29,334 x 15
##    row_number animal_name animal_gender animal_birth_mon… breed_name     borough
##         <dbl> <chr>       <chr>         <date>            <chr>          <chr>  
##  1       2895 FUDGE       M             2014-07-01        American Pit … Brookl…
##  2       4057 STAR        F             2011-01-01        Poodle         Brookl…
##  3      74463 MUNECA      F             2011-09-01        Chihuahua Cro… Brookl…
##  4      76232 KATTY       F             2002-06-01        Chihuahua      Brookl…
##  5      85113 SHADOW      M             2015-03-01        American Pit … Brookl…
##  6      85997 SPARKIE     M             2013-08-01        Maltese Cross… Brookl…
##  7      92451 SNOW        M             2014-07-01        Maltese        Brookl…
##  8     104256 BELLA       F             2016-07-01        Maltese        Brookl…
##  9      10389 SPARKLE     F             2006-01-01        Schnauzer, St… Brookl…
## 10      82492 UNKNOWN     F             2015-11-01        Pomeranian     Brookl…
## # … with 29,324 more rows, and 9 more variables: zip_code <dbl>,
## #   community_district <dbl>, census_tract_2010 <dbl>,
## #   neighborhood_tabulation_area <chr>, city_council_district <dbl>,
## #   congressional_district <dbl>, state_senatorial_district <dbl>,
## #   license_issued_date <date>, license_expired_date <date>
…
